…
library(dplyr)
#> 
#> Attaching package: 'dplyr'
#> The following objects are masked from 'package:stats':
#> 
#>     filter, lag
#> The following objects are masked from 'package:base':
#> 
#>     intersect, setdiff, setequal, union
# Summarize video_type by agency_county
incident %>%
  select(form_id, agency_county) %>%
  right_join(incident_video_type, by = "form_id") %>%
  count(agency_county, video_type)
#> # A tibble: 178 × 3
#>    agency_county video_type              n
#>    <fct>         <fct>               <int>
#>  1 Atlantic      Body Worn             461
#>  2 Atlantic      CED Camera              5
#>  3 Atlantic      Cell Phone              3
#>  4 Atlantic      Commercial Building    24
#>  5 Atlantic      Motor Vehicle         127
#>  6 Atlantic      Residential/Home        2
#>  7 Atlantic      Station House          26
#>  8 Atlantic      Other                  31
#>  9 Bergen        Body Worn             461
#> 10 Bergen        CED Camera             35
#> # … with 168 more rows
```
…
